{
  "type": "service_account",
  "project_id": "pruebasbnf",
  "private_key_id": "8669e19aec422175b1036b1166c4d753926fe11d",
  "private_key": "-----BEGIN PRIVATE KEY-----\nMIIEvAIBADANBgkqhkiG9w0BAQEFAASCBKYwggSiAgEAAoIBAQCj3fL3WE+enfxM\nHkDyWqFFuaWLk2wWF0pd8AhT9PQi3FW3uq747whiGe7KJy0DOr22w4DU/NC4VkvN\nHY7uDMMcTYw2wQXGkQ2ppAjhFwSE8+o+lcmOpPY0EfOc1IuIfYablmnPAF8u4Dya\nl8NCcPvR+dVEUZdS0LThxyACaV0bZJQ5ousB5dHn2WvGCNj99fmhNlHTY5TK5tok\nnc+OiiVlngPes4TAl3U3rEoBj2xmVPcqb3KmOf2ewgSJq9IraYuiZrht3rz2Iq4D\nkYPHBDj8aHydt3lPiImSO1gMZqk0iRwLFSci3RT9Lf0fgpeQd6oj3A1lJ6b4rx/T\nmcZ3ZG+VAgMBAAECggEAET0jttaxBZhMNvvFzFkxdyLZIg5fxBEuLyS105NE7bft\nQpdemeyXnq5ouxaU+y5+T9BQaNex43qcndb6tttb2UnlMstqnqGa5NpPXtKrlIsO\nfQgH/Lwo9IBg9wI7LaA6/Xo85lx9JvLLHV5S2dYF/+h/AaFtwHYZWVk36lkIRP3M\nAnGYkU0Sg3GVZWK9gwJTcUJ2KdhvwovtazIdjlq53Zv+IdstZwXToFHUC1Dqj7WA\nLYzw+c3AO4G9dbqXBIwcES3pIJhH3UFmFEzoiDQgqhuSbyhxNs1cuk6hKjkVoJEs\nVNLcGTIa13WshUrc5bCwswCocx+AW+jRXYVMtXENsQKBgQDfZF/YX1msyWWWAATr\nwpwYXlzBO+AVk3teU5G4G6lBKLPYKUyCiBbRrxSv3X78yt/vm1JfESDFuY1b/kim\nidUZPKmkk7lUlN6bdG0QpLDyoNIQQUAm1/52IdT6p+Cx2uQWa3ymxGODV8xJWZhk\n5Zl20MdnUBFfyHf7lG6ZM3gZaQKBgQC7yUPHIf6bu8XrT4ZtdGPxub89471vnz/3\npODq2wCE33rORiCxAfeQYxduSKPGyUsJ2/htWy8pVJTPej/jBC034wBBOd+Vle0x\nJdIUqyWzjSrVo0LS1qXPzG84uzJMBZscm49VPUDsk9rvkutvTOxVPJDkGW7kWUtZ\nZ+Ux4RITTQKBgHmP9nQZFwRmp+gjZIoi4ayFFPZ2La+wDM88rKxCKS1zB8LWXnMd\nuUUrgBdfce4APDH4FK/08x+FpH3t9vzhPlw4XZxYYt67EBQKHBuVc1Dk4MrFpzI8\nEZWZPXuVBTnjgoEMxs09S2W6zkkP/1TQeF1mqUv4DyxPO7Nkh3bIwk8ZAoGAAL1A\nGQ6XNAG/O7fqbY/hvNfgWtwEqOXVmKH7iLEoBV3j2+AGzOuXD+hz9SkwC95K/1Tw\nW23ad60vkMmIatpfWzL3k0opCSu37VOayh4KXfSWUJT99FqH+JNzdKO4BPiYrbon\nDEzbbpL+b6cCakPBQmyknWFEQH3hgA6apmGecpkCgYBdLBtVJtt3Fs1LhhR7X7UR\nNsTTiKeGheMQT52Y6Abr24nlUi0CkT83s3x2bVZddmZ8+tyHv2IgwiTAQf/G7Mv0\nIlHyRgwsXasg3C06rxzU0Evu7JRatHuoaD6tu3PoN7W8mxwGk4GMqyZMYFswUP5Z\nZ8IAUeEXzMcEEX+yh0DDSQ==\n-----END PRIVATE KEY-----\n",
  "client_email": "firebase-adminsdk-ij89h@pruebasbnf.iam.gserviceaccount.com",
  "client_id": "109936802699003392691",
  "auth_uri": "https://accounts.google.com/o/oauth2/auth",
  "token_uri": "https://oauth2.googleapis.com/token",
  "auth_provider_x509_cert_url": "https://www.googleapis.com/oauth2/v1/certs",
  "client_x509_cert_url": "https://www.googleapis.com/robot/v1/metadata/x509/firebase-adminsdk-ij89h%40pruebasbnf.iam.gserviceaccount.com"
}
